{
	"info": {
		"_postman_id": "3f3811cb-ae4d-446d-a369-99d6b6649366",
		"name": "IDB01 Postman Tests",
		"schema": "https://schema.getpostman.com/json/collection/v2.1.0/collection.json",
		"_exporter_id": "26154442"
	},
	"item": [
		{
			"name": "Get All Leagues",
			"event": [
				{
					"listen": "test",
					"script": {
						"exec": [
							"pm.test(\"Get All Leagues\", () => {\r",
							"    pm.expect(pm.response.code).to.eql(200);\r",
							"    pm.expect(pm.response.json()).to.have.lengthOf(54);\r",
							"});"
						],
						"type": "text/javascript"
					}
				}
			],
			"request": {
				"method": "GET",
				"header": [],
				"url": {
					"raw": "https://api.allthesports.info/leagues",
					"protocol": "https",
					"host": [
						"api",
						"allthesports",
						"info"
					],
					"path": [
						"leagues"
					]
				}
			},
			"response": []
		},
		{
			"name": "Get All Teams",
			"event": [
				{
					"listen": "test",
					"script": {
						"exec": [
							"pm.test(\"Get All Teams\", () => {\r",
							"    pm.expect(pm.response.code).to.eql(200);\r",
							"    pm.expect(pm.response.json()).to.have.lengthOf(1372);\r",
							"});"
						],
						"type": "text/javascript"
					}
				}
			],
			"request": {
				"method": "GET",
				"header": [],
				"url": {
					"raw": "https://api.allthesports.info/teams",
					"protocol": "https",
					"host": [
						"api",
						"allthesports",
						"info"
					],
					"path": [
						"teams"
					]
				}
			},
			"response": []
		},
		{
			"name": "Get All Players",
			"event": [
				{
					"listen": "test",
					"script": {
						"exec": [
							"pm.test(\"Get All Players\", () => {\r",
							"    pm.expect(pm.response.code).to.eql(200);\r",
							"    pm.expect(pm.response.json()).to.have.lengthOf(4122);\r",
							"});"
						],
						"type": "text/javascript"
					}
				}
			],
			"request": {
				"method": "GET",
				"header": [],
				"url": {
					"raw": "https://api.allthesports.info/players",
					"protocol": "https",
					"host": [
						"api",
						"allthesports",
						"info"
					],
					"path": [
						"players"
					]
				}
			},
			"response": []
		},
		{
			"name": "Get Total Leagues",
			"event": [
				{
					"listen": "test",
					"script": {
						"exec": [
							"pm.test(\"Get Total Leagues\", () => {\r",
							"    pm.expect(pm.response.code).to.eql(200);\r",
							"    pm.expect(pm.response.json()).to.eql(54);\r",
							"});"
						],
						"type": "text/javascript"
					}
				}
			],
			"request": {
				"method": "GET",
				"header": [],
				"url": {
					"raw": "https://api.allthesports.info/total_leagues",
					"protocol": "https",
					"host": [
						"api",
						"allthesports",
						"info"
					],
					"path": [
						"total_leagues"
					]
				}
			},
			"response": []
		},
		{
			"name": "Get Total Teams",
			"event": [
				{
					"listen": "test",
					"script": {
						"exec": [
							"pm.test(\"Get Total Teams\", () => {\r",
							"    pm.expect(pm.response.code).to.eql(200);\r",
							"    pm.expect(pm.response.json()).to.eql(1372);\r",
							"});"
						],
						"type": "text/javascript"
					}
				}
			],
			"request": {
				"method": "GET",
				"header": [],
				"url": {
					"raw": "https://api.allthesports.info/total_teams",
					"protocol": "https",
					"host": [
						"api",
						"allthesports",
						"info"
					],
					"path": [
						"total_teams"
					]
				}
			},
			"response": []
		},
		{
			"name": "Get Total Players",
			"event": [
				{
					"listen": "test",
					"script": {
						"exec": [
							"pm.test(\"Get Total Players\", () => {\r",
							"    pm.expect(pm.response.code).to.eql(200);\r",
							"    pm.expect(pm.response.json()).to.eql(4122);\r",
							"});"
						],
						"type": "text/javascript"
					}
				}
			],
			"request": {
				"method": "GET",
				"header": [],
				"url": {
					"raw": "https://api.allthesports.info/total_players",
					"protocol": "https",
					"host": [
						"api",
						"allthesports",
						"info"
					],
					"path": [
						"total_players"
					]
				}
			},
			"response": []
		},
		{
			"name": "Get League by ID",
			"event": [
				{
					"listen": "test",
					"script": {
						"exec": [
							"pm.test(\"Get League by ID\", () => {\r",
							"    pm.expect(pm.response.code).to.eql(200);\r",
							"    pm.expect(pm.response.json()).to.eql({\r",
							"                \"country\": \"Northern Ireland\",\r",
							"                \"end_date\": \"2023-06-30 23:59:00\",\r",
							"                \"id\": 1,\r",
							"                \"logo\": \"https://tipsscore.com/resb/league/northern-ireland-premiership.png\",\r",
							"                \"map_src\": \"https://www.google.com/maps/embed/v1/place?key=AIzaSyAtkOsbm4UUWvN4ufauQM8ZZjH0YZTFjy8&q=Northern+Ireland\",\r",
							"                \"name\": \"Premiership\",\r",
							"                'sport_id': 1,\r",
							"                \"start_date\": \"2022-08-12 18:45:00\",\r",
							"            });\r",
							"});"
						],
						"type": "text/javascript"
					}
				}
			],
			"request": {
				"method": "GET",
				"header": [],
				"url": {
					"raw": "https://api.allthesports.info/leagues/1",
					"protocol": "https",
					"host": [
						"api",
						"allthesports",
						"info"
					],
					"path": [
						"leagues",
						"1"
					]
				}
			},
			"response": []
		},
		{
			"name": "Get Team by ID",
			"event": [
				{
					"listen": "test",
					"script": {
						"exec": [
							"pm.test(\"Get League by ID\", () => {\r",
							"    pm.expect(pm.response.code).to.eql(200);\r",
							"    pm.expect(pm.response.json()).to.eql({\r",
							"                \"country_name\": \"Norway\",\r",
							"                \"id\": 25,\r",
							"                'league_id': 943,\r",
							"                \"logo\": \"https://tipsscore.com/resb/team/ruud-c.png\",\r",
							"                \"manager_birthday\": \"No information about manager b\",\r",
							"                \"manager_name\": \"No information about manager n\",\r",
							"                \"manager_photo\": \"No manager photo.\",\r",
							"                \"map_src\": \"\",\r",
							"                \"name\": \"Ruud C.\",\r",
							"                'sport_id': 2,\r",
							"                \"stadium_capacity\": 0,\r",
							"                \"stadium_name\": \"No information about stadium.\",\r",
							"            });\r",
							"});"
						],
						"type": "text/javascript"
					}
				}
			],
			"request": {
				"method": "GET",
				"header": [],
				"url": {
					"raw": "https://api.allthesports.info/teams/25",
					"protocol": "https",
					"host": [
						"api",
						"allthesports",
						"info"
					],
					"path": [
						"teams",
						"25"
					]
				}
			},
			"response": []
		},
		{
			"name": "Get Player by ID",
			"event": [
				{
					"listen": "test",
					"script": {
						"exec": [
							"pm.test(\"Get Player by ID\", () => {\r",
							"    pm.expect(pm.response.code).to.eql(200);\r",
							"    pm.expect(pm.response.json()).to.eql({\r",
							"                \"age\": 23,\r",
							"                \"bio\": \"Adam Thomas Lewis (born 8 November 1999) is an English professional footballer who plays as a left-back for Newport County on loan from Liverpool.\",\r",
							"                \"birthday\": \"1999-11-08\",\r",
							"                \"height\": 1.75,\r",
							"                \"id\": 95,\r",
							"                'league_id': 6,\r",
							"                \"market_currency\": \"EUR\",\r",
							"                \"market_value\": 0,\r",
							"                \"name\": \"Adam Lewis\",\r",
							"                \"photo\": \"https://tipsscore.com/resb/player/adam-lewis.png\",\r",
							"                \"rating\": 53,\r",
							"                'sport_id': 1,\r",
							"                'team_id': 4855,\r",
							"                \"video_src\": \"\",\r",
							"                \"weight\": 0.0,\r",
							"            });\r",
							"});"
						],
						"type": "text/javascript"
					}
				}
			],
			"request": {
				"method": "GET",
				"header": [],
				"url": {
					"raw": "https://api.allthesports.info/players/95",
					"protocol": "https",
					"host": [
						"api",
						"allthesports",
						"info"
					],
					"path": [
						"players",
						"95"
					]
				}
			},
			"response": []
		},
		{
			"name": "Get Sport by ID",
			"event": [
				{
					"listen": "test",
					"script": {
						"exec": [
							"pm.test(\"Get Sport by ID\", () => {\r",
							"    pm.expect(pm.response.code).to.eql(200);\r",
							"    pm.expect(pm.response.json()).to.eql({\r",
							"                \"id\": 1,\r",
							"                \"name\": \"Football\"});\r",
							"});"
						],
						"type": "text/javascript"
					}
				}
			],
			"request": {
				"method": "GET",
				"header": [],
				"url": {
					"raw": "https://api.allthesports.info/sports/1",
					"protocol": "https",
					"host": [
						"api",
						"allthesports",
						"info"
					],
					"path": [
						"sports",
						"1"
					]
				}
			},
			"response": []
		},
		{
			"name": "Get Facts by League ID",
			"event": [
				{
					"listen": "test",
					"script": {
						"exec": [
							"pm.test(\"Get Facts by League ID\", () => {\r",
							"    pm.expect(pm.response.code).to.eql(200);\r",
							"    pm.expect(pm.response.json()).to.have.lengthOf(8);\r",
							"});"
						],
						"type": "text/javascript"
					}
				}
			],
			"request": {
				"method": "GET",
				"header": [],
				"url": {
					"raw": "https://api.allthesports.info/facts/1",
					"protocol": "https",
					"host": [
						"api",
						"allthesports",
						"info"
					],
					"path": [
						"facts",
						"1"
					]
				}
			},
			"response": []
		},
		{
			"name": "Get Seasons by League ID",
			"event": [
				{
					"listen": "test",
					"script": {
						"exec": [
							"pm.test(\"Get Seasons by League ID\", () => {\r",
							"    pm.expect(pm.response.code).to.eql(200);\r",
							"    pm.expect(pm.response.json()).to.eql([{\"end_year\":2021,\"id\":6976,\"name\":\"Premiership 20/21\",\"start_year\":2020},{\"end_year\":2022,\"id\":9279,\"name\":\"Premiership 21/22\",\"start_year\":2021},{\"end_year\":2023,\"id\":18970,\"name\":\"Premiership 22/23\",\"start_year\":2022}]);\r",
							"});"
						],
						"type": "text/javascript"
					}
				}
			],
			"request": {
				"method": "GET",
				"header": [],
				"url": {
					"raw": "https://api.allthesports.info/seasons/1",
					"protocol": "https",
					"host": [
						"api",
						"allthesports",
						"info"
					],
					"path": [
						"seasons",
						"1"
					]
				}
			},
			"response": []
		},
		{
			"name": "Get Metrics by Team ID",
			"event": [
				{
					"listen": "test",
					"script": {
						"exec": [
							"pm.test(\"Get Metrics by Team ID\", () => {\r",
							"    pm.expect(pm.response.code).to.eql(200);\r",
							"    pm.expect(pm.response.json()).to.eql([{\"id\":92,\"name\":\"total\",\"value\":337},{\"id\":93,\"name\":\"wins\",\"value\":209},{\"id\":94,\"name\":\"draws\",\"value\":54},{\"id\":95,\"name\":\"losses\",\"value\":74},{\"id\":96,\"name\":\"goals_scored\",\"value\":686},{\"id\":97,\"name\":\"goals_conceded\",\"value\":314},{\"id\":98,\"name\":\"total_points\",\"value\":681}]);\r",
							"});"
						],
						"type": "text/javascript"
					}
				}
			],
			"request": {
				"method": "GET",
				"header": [],
				"url": {
					"raw": "https://api.allthesports.info/metrics/209",
					"protocol": "https",
					"host": [
						"api",
						"allthesports",
						"info"
					],
					"path": [
						"metrics",
						"209"
					]
				}
			},
			"response": []
		},
		{
			"name": "Get Teams by League ID",
			"event": [
				{
					"listen": "test",
					"script": {
						"exec": [
							"pm.test(\"Get Teams by League ID\", () => {\r",
							"    pm.expect(pm.response.code).to.eql(200);\r",
							"    pm.expect(pm.response.json()).to.have.lengthOf(12);\r",
							"});"
						],
						"type": "text/javascript"
					}
				}
			],
			"request": {
				"method": "GET",
				"header": [],
				"url": {
					"raw": "https://api.allthesports.info/teams/league/1",
					"protocol": "https",
					"host": [
						"api",
						"allthesports",
						"info"
					],
					"path": [
						"teams",
						"league",
						"1"
					]
				}
			},
			"response": []
		},
		{
			"name": "Get Players by Team ID",
			"event": [
				{
					"listen": "test",
					"script": {
						"exec": [
							"pm.test(\"Get Players by Team ID\", () => {\r",
							"    pm.expect(pm.response.code).to.eql(200);\r",
							"    pm.expect(pm.response.json()).to.have.lengthOf(25);\r",
							"});"
						],
						"type": "text/javascript"
					}
				}
			],
			"request": {
				"method": "GET",
				"header": [],
				"url": {
					"raw": "https://api.allthesports.info/players/team/66",
					"protocol": "https",
					"host": [
						"api",
						"allthesports",
						"info"
					],
					"path": [
						"players",
						"team",
						"66"
					]
				}
			},
			"response": []
		},
		{
			"name": "Search Leagues",
			"event": [
				{
					"listen": "test",
					"script": {
						"exec": [
							"pm.test(\"Search Leagues\", () => {\r",
							"    pm.expect(pm.response.code).to.eql(200);\r",
							"    pm.expect(pm.response.json()).to.have.lengthOf(9);\r",
							"});"
						],
						"type": "text/javascript"
					}
				}
			],
			"request": {
				"method": "GET",
				"header": [],
				"url": {
					"raw": "https://api.allthesports.info/leagues/search?terms=hockey",
					"protocol": "https",
					"host": [
						"api",
						"allthesports",
						"info"
					],
					"path": [
						"leagues",
						"search"
					],
					"query": [
						{
							"key": "terms",
							"value": "hockey"
						}
					]
				}
			},
			"response": []
		},
		{
			"name": "Search Teams",
			"event": [
				{
					"listen": "test",
					"script": {
						"exec": [
							"pm.test(\"Search Teams\", () => {\r",
							"    pm.expect(pm.response.code).to.eql(200);\r",
							"    pm.expect(pm.response.json()).to.have.lengthOf(160);\r",
							"});"
						],
						"type": "text/javascript"
					}
				}
			],
			"request": {
				"method": "GET",
				"header": [],
				"url": {
					"raw": "https://api.allthesports.info/teams/search?terms=hockey",
					"protocol": "https",
					"host": [
						"api",
						"allthesports",
						"info"
					],
					"path": [
						"teams",
						"search"
					],
					"query": [
						{
							"key": "terms",
							"value": "hockey"
						}
					]
				}
			},
			"response": []
		},
		{
			"name": "Search Players",
			"event": [
				{
					"listen": "test",
					"script": {
						"exec": [
							"pm.test(\"Search Players\", () => {\r",
							"    pm.expect(pm.response.code).to.eql(200);\r",
							"    pm.expect(pm.response.json()).to.have.lengthOf(1706);\r",
							"});"
						],
						"type": "text/javascript"
					}
				}
			],
			"request": {
				"method": "GET",
				"header": [],
				"url": {
					"raw": "https://api.allthesports.info/players/search?terms=hockey",
					"protocol": "https",
					"host": [
						"api",
						"allthesports",
						"info"
					],
					"path": [
						"players",
						"search"
					],
					"query": [
						{
							"key": "terms",
							"value": "hockey"
						}
					]
				}
			},
			"response": []
		},
		{
			"name": "Search All",
			"event": [
				{
					"listen": "test",
					"script": {
						"exec": [
							"pm.test(\"Search All\", () => {\r",
							"    pm.expect(pm.response.code).to.eql(200);\r",
							"    pm.expect(pm.response.json().leagues).to.have.lengthOf(9);\r",
							"    pm.expect(pm.response.json().teams).to.have.lengthOf(160);\r",
							"    pm.expect(pm.response.json().players).to.have.lengthOf(1706);\r",
							"});"
						],
						"type": "text/javascript"
					}
				}
			],
			"request": {
				"method": "GET",
				"header": [],
				"url": {
					"raw": "https://api.allthesports.info/search?query=hockey",
					"protocol": "https",
					"host": [
						"api",
						"allthesports",
						"info"
					],
					"path": [
						"search"
					],
					"query": [
						{
							"key": "query",
							"value": "hockey"
						}
					]
				}
			},
			"response": []
		},
		{
			"name": "Filter Leagues",
			"event": [
				{
					"listen": "test",
					"script": {
						"exec": [
							"pm.test(\"Filter Leagues\", () => {\r",
							"    pm.expect(pm.response.code).to.eql(200);\r",
							"    pm.expect(pm.response.json()).to.have.lengthOf(9);\r",
							"});"
						],
						"type": "text/javascript"
					}
				}
			],
			"request": {
				"method": "GET",
				"header": [],
				"url": {
					"raw": "https://api.allthesports.info/leagues/filter?filter_type=Sport&filter_value=handball",
					"protocol": "https",
					"host": [
						"api",
						"allthesports",
						"info"
					],
					"path": [
						"leagues",
						"filter"
					],
					"query": [
						{
							"key": "filter_type",
							"value": "Sport"
						},
						{
							"key": "filter_value",
							"value": "handball"
						}
					]
				}
			},
			"response": []
		},
		{
			"name": "Filter Teams",
			"event": [
				{
					"listen": "test",
					"script": {
						"exec": [
							"pm.test(\"Filter Teams\", () => {\r",
							"    pm.expect(pm.response.code).to.eql(200);\r",
							"    pm.expect(pm.response.json()).to.have.lengthOf(74);\r",
							"});"
						],
						"type": "text/javascript"
					}
				}
			],
			"request": {
				"method": "GET",
				"header": [],
				"url": {
					"raw": "https://api.allthesports.info/teams/filter?filter_type=sport&filter_value=handball",
					"protocol": "https",
					"host": [
						"api",
						"allthesports",
						"info"
					],
					"path": [
						"teams",
						"filter"
					],
					"query": [
						{
							"key": "filter_type",
							"value": "sport"
						},
						{
							"key": "filter_value",
							"value": "handball"
						}
					]
				}
			},
			"response": []
		},
		{
			"name": "Filter Players",
			"event": [
				{
					"listen": "test",
					"script": {
						"exec": [
							"pm.test(\"Filter Players\", () => {\r",
							"    pm.expect(pm.response.code).to.eql(200);\r",
							"    pm.expect(pm.response.json()).to.have.lengthOf(889);\r",
							"});"
						],
						"type": "text/javascript"
					}
				}
			],
			"request": {
				"method": "GET",
				"header": [],
				"url": {
					"raw": "https://api.allthesports.info/players/filter?filter_type=sport&filter_value=handball",
					"protocol": "https",
					"host": [
						"api",
						"allthesports",
						"info"
					],
					"path": [
						"players",
						"filter"
					],
					"query": [
						{
							"key": "filter_type",
							"value": "sport"
						},
						{
							"key": "filter_value",
							"value": "handball"
						}
					]
				}
			},
			"response": []
		},
		{
			"name": "Sort Leagues",
			"event": [
				{
					"listen": "test",
					"script": {
						"exec": [
							"pm.test(\"Sort Leagues\", () => {\r",
							"    pm.expect(pm.response.code).to.eql(200);\r",
							"    pm.expect(pm.response.json()[0]).to.eql({\r",
							"                \"country\": \"Poland\",\r",
							"                \"end_date\": \"2023-05-28 00:00:00\",\r",
							"                \"id\": 7366,\r",
							"                \"logo\": \"https://tipsscore.com/resb/league/poland-1-liga.png\",\r",
							"                \"map_src\": \"https://www.google.com/maps/embed/v1/place?key=AIzaSyAtkOsbm4UUWvN4ufauQM8ZZjH0YZTFjy8&q=Poland\",\r",
							"                \"name\": \"1 Liga\",\r",
							"                \"sport_id\": 3,\r",
							"                \"start_date\": \"2022-09-24 11:00:00\"\r",
							"            });\r",
							"});"
						],
						"type": "text/javascript"
					}
				}
			],
			"request": {
				"method": "GET",
				"header": [],
				"url": {
					"raw": "https://api.allthesports.info/leagues/sort?sort_type=Name",
					"protocol": "https",
					"host": [
						"api",
						"allthesports",
						"info"
					],
					"path": [
						"leagues",
						"sort"
					],
					"query": [
						{
							"key": "sort_type",
							"value": "Name"
						}
					]
				}
			},
			"response": []
		},
		{
			"name": "Sort Teams",
			"event": [
				{
					"listen": "test",
					"script": {
						"exec": [
							"pm.test(\"Sort Teams\", () => {\r",
							"    pm.expect(pm.response.code).to.eql(200);\r",
							"    pm.expect(pm.response.json()).to.have.lengthOf(4);\r",
							"});"
						],
						"type": "text/javascript"
					}
				}
			],
			"request": {
				"method": "GET",
				"header": [],
				"url": {
					"raw": "https://api.allthesports.info/teams/filter?filter_type=country&filter_value=zimbabwe",
					"protocol": "https",
					"host": [
						"api",
						"allthesports",
						"info"
					],
					"path": [
						"teams",
						"filter"
					],
					"query": [
						{
							"key": "filter_type",
							"value": "country"
						},
						{
							"key": "filter_value",
							"value": "zimbabwe"
						}
					]
				}
			},
			"response": []
		},
		{
			"name": "Sort Players",
			"event": [
				{
					"listen": "test",
					"script": {
						"exec": [
							"pm.test(\"Sort Players\", () => {\r",
							"    pm.expect(pm.response.code).to.eql(200);\r",
							"    pm.expect(pm.response.json()).to.have.lengthOf(236);\r",
							"});"
						],
						"type": "text/javascript"
					}
				}
			],
			"request": {
				"method": "GET",
				"header": [],
				"url": {
					"raw": "https://api.allthesports.info/players/filter?filter_type=video&filter_value=Yes",
					"protocol": "https",
					"host": [
						"api",
						"allthesports",
						"info"
					],
					"path": [
						"",
						"players",
						"filter"
					],
					"query": [
						{
							"key": "filter_type",
							"value": "video"
						},
						{
							"key": "filter_value",
							"value": "Yes"
						}
					]
				}
			},
			"response": []
		}
	]
}